; Engine configuration file.
; It's best edited using the editor UI and not directly,
; since the parameters that go here are not all obvious.
;
; Format:
;   [section] ; section goes between []
;   param=value ; assign values to parameters

config_version=5

[application]

config/name="eter"
run/main_scene="res://presentación/menú_principal.tscn"
config/features=PackedStringArray("4.2")
config/icon="res://ícono.png"

[autoload]

Global="*res://global.gd"

[display]

window/size/viewport_width=1920
window/size/viewport_height=1080
window/size/mode=3

[editor]

movie_writer/movie_file="/home/egberto/Vídeos/Proyectos/SalidaGodot.avi"

[filesystem]

import/blender/enabled=false
import/fbx/enabled=false

[gui]

theme/custom="res://interfaz/tema/predeterminado.theme"

[input]

clic_primario={
"deadzone": 0.5,
"events": [Object(InputEventMouseButton,"resource_local_to_scene":false,"resource_name":"","device":-1,"window_id":0,"alt_pressed":false,"shift_pressed":false,"ctrl_pressed":false,"meta_pressed":false,"button_mask":0,"position":Vector2(0, 0),"global_position":Vector2(0, 0),"factor":1.0,"button_index":1,"canceled":false,"pressed":false,"double_click":false,"script":null)
]
}

[physics]

common/enable_pause_aware_picking=true

[rendering]

environment/defaults/default_environment="res://default_env.tres"
