[gd_scene load_steps=4 format=3 uid="uid://b83oc03bhcn3u"]

[ext_resource type="Texture2D" uid="uid://d0cgbuctj3mqt" path="res://creación/jugadora/boca_1.png" id="1_syugd"]
[ext_resource type="Texture2D" uid="uid://dqhchsx6es1hf" path="res://creación/jugadora/boca_1_n.png" id="2_6t45q"]

[sub_resource type="CanvasTexture" id="CanvasTexture_fdkdq"]
diffuse_texture = ExtResource("1_syugd")
normal_texture = ExtResource("2_6t45q")

[node name="Boca1" type="Sprite2D"]
position = Vector2(-25, -458)
texture = SubResource("CanvasTexture_fdkdq")
