[gd_scene load_steps=4 format=3 uid="uid://d0rlw3yfyic21"]

[ext_resource type="Texture2D" uid="uid://cnkng6o457ye2" path="res://creación/jugadora/nariz_3.png" id="1_tgp6t"]
[ext_resource type="Texture2D" uid="uid://ddsvsgunbpbmq" path="res://creación/jugadora/nariz_3_n.png" id="2_ufxbq"]

[sub_resource type="CanvasTexture" id="CanvasTexture_0cgjf"]
diffuse_texture = ExtResource("1_tgp6t")
normal_texture = ExtResource("2_ufxbq")

[node name="Nariz3" type="Sprite2D"]
position = Vector2(-25, -472)
texture = SubResource("CanvasTexture_0cgjf")
