[gd_scene load_steps=4 format=3 uid="uid://cmqy3f153orcg"]

[ext_resource type="Texture2D" uid="uid://jnqqrixotore" path="res://creación/jugadora/piernas.png" id="1_u2mg3"]
[ext_resource type="Texture2D" uid="uid://bawf6urq244ri" path="res://creación/jugadora/piernas_n.png" id="2_835ic"]

[sub_resource type="CanvasTexture" id="CanvasTexture_wacnk"]
diffuse_texture = ExtResource("1_u2mg3")
normal_texture = ExtResource("2_835ic")

[node name="Piernas" type="Sprite2D"]
position = Vector2(0, -144)
texture = SubResource("CanvasTexture_wacnk")
