[gd_scene load_steps=4 format=3 uid="uid://bcnhkpqm0shi7"]

[ext_resource type="Texture2D" uid="uid://bqwwu6gvpwch2" path="res://creación/jugador/barba_2.png" id="1_xvqic"]
[ext_resource type="Texture2D" uid="uid://ftm7vfi4vwax" path="res://creación/jugador/barba_2_n.png" id="2_rkdxy"]

[sub_resource type="CanvasTexture" id="CanvasTexture_gs4ie"]
diffuse_texture = ExtResource("1_xvqic")
normal_texture = ExtResource("2_rkdxy")

[node name="Barba2" type="Sprite2D"]
position = Vector2(-32, -487)
texture = SubResource("CanvasTexture_gs4ie")
