[gd_scene load_steps=4 format=3 uid="uid://ca3we7cocidpi"]

[ext_resource type="Texture2D" uid="uid://1wolxvme2rlx" path="res://creación/jugador/brazo_i_1.png" id="1_qpw21"]
[ext_resource type="Texture2D" uid="uid://dogc0jujm7t7h" path="res://creación/jugador/brazo_i_1_n.png" id="2_ifng3"]

[sub_resource type="CanvasTexture" id="CanvasTexture_vbtm5"]
diffuse_texture = ExtResource("1_qpw21")
normal_texture = ExtResource("2_ifng3")

[node name="BrazoI1" type="Sprite2D"]
position = Vector2(70, -405)
texture = SubResource("CanvasTexture_vbtm5")
