[gd_scene load_steps=4 format=3 uid="uid://ds1fdfsyed1w"]

[ext_resource type="Texture2D" uid="uid://c1p481aho6bg" path="res://creación/jugador/cara_2.png" id="1_e87ia"]
[ext_resource type="Texture2D" uid="uid://b4md10417o034" path="res://creación/jugador/cara_2_n.png" id="2_ao2yu"]

[sub_resource type="CanvasTexture" id="CanvasTexture_7uq5r"]
diffuse_texture = ExtResource("1_e87ia")
normal_texture = ExtResource("2_ao2yu")

[node name="Cara2" type="Sprite2D"]
position = Vector2(-24, -516)
texture = SubResource("CanvasTexture_7uq5r")
