[gd_scene load_steps=4 format=3 uid="uid://5nhrmimuchq3"]

[ext_resource type="Texture2D" uid="uid://crr32hxoxhl70" path="res://creación/jugador/cara_3.png" id="1_kxjl8"]
[ext_resource type="Texture2D" uid="uid://c0fsvhrvvlomq" path="res://creación/jugador/cara_3_n.png" id="2_rq3j8"]

[sub_resource type="CanvasTexture" id="CanvasTexture_jrai5"]
diffuse_texture = ExtResource("1_kxjl8")
normal_texture = ExtResource("2_rq3j8")

[node name="Cara3" type="Sprite2D"]
position = Vector2(-24, -515.5)
texture = SubResource("CanvasTexture_jrai5")
