[gd_scene load_steps=4 format=3 uid="uid://c1vvvapfcicha"]

[ext_resource type="Texture2D" uid="uid://detn8u36h1yn0" path="res://creación/jugador/cara_1.png" id="1_e4dgp"]
[ext_resource type="Texture2D" uid="uid://vwfbolrvroft" path="res://creación/jugador/cara_1_n.png" id="2_vduwy"]

[sub_resource type="CanvasTexture" id="CanvasTexture_5vkio"]
diffuse_texture = ExtResource("1_e4dgp")
normal_texture = ExtResource("2_vduwy")

[node name="Cara1" type="Sprite2D"]
position = Vector2(-24, -516)
texture = SubResource("CanvasTexture_5vkio")
