[gd_scene load_steps=4 format=3 uid="uid://ddvx07nq6j6ik"]

[ext_resource type="Texture2D" uid="uid://lxayr7lkxd0k" path="res://creación/jugador/cejas_4.png" id="1_nec7h"]
[ext_resource type="Texture2D" uid="uid://bjyxowu1rlerp" path="res://creación/jugador/cejas_4_n.png" id="2_lspuw"]

[sub_resource type="CanvasTexture" id="CanvasTexture_bbk1w"]
diffuse_texture = ExtResource("1_nec7h")
normal_texture = ExtResource("2_lspuw")

[node name="Cejas4" type="Sprite2D"]
position = Vector2(-31, -518)
texture = SubResource("CanvasTexture_bbk1w")
