[gd_scene load_steps=4 format=3 uid="uid://4diodw8tw2r4"]

[ext_resource type="Texture2D" uid="uid://0khowy801n5l" path="res://creación/jugador/iris.png" id="1_evd2q"]
[ext_resource type="Texture2D" uid="uid://dn6gnqr8l01pn" path="res://creación/jugador/iris_n.png" id="2_2q7dm"]

[sub_resource type="CanvasTexture" id="CanvasTexture_7fsxx"]
diffuse_texture = ExtResource("1_evd2q")
normal_texture = ExtResource("2_2q7dm")

[node name="Iris" type="Sprite2D"]
position = Vector2(-32, -511)
texture = SubResource("CanvasTexture_7fsxx")
